10.04710830513294,-4.120817948437027,43.79267797520666,26.077295493874857,85.10385889322319,100.0,197.94520507838936,201.24344637318046,34.06124162413597,7.877749975524354
10.04710830513294,9.966197762925244,37.66146121961863,25.312221557523674,85.10385889322319,100.0,230.8031728599811,201.24344637318046,30.02101422142583,7.877749975524354
10.04710830513294,9.966197762925244,29.93934772128886,25.694758525699264,85.10385889322319,100.0,214.37418896918524,149.26318119245286,34.06124162413597,4.125114367720107
10.04710830513294,-4.120817948437027,43.79267797520666,26.077295493874857,85.10385889322319,101.45083004135682,214.37418896918524,201.24344637318046,-67.85426001295642,11.630385583328602