10.04710830513294,3.0646064655256056,43.79267797520666,26.077295493874857,85.50625287150243,101.45083004135682,208.21332001013678,175.25331378281666,-74.33309435334044,7.877749975524354
10.04710830513294,9.966197762925244,43.79267797520666,26.077295493874857,125.56560706915924,101.45083004135682,210.26694299648628,149.26318119245286,-80.81192869372448,7.877749975524354
10.04710830513294,-3.836984831874033,43.79267797520666,26.077295493874857,85.90864684978165,101.45083004135682,206.15969702378732,201.24344637318046,-67.85426001295642,7.877749975524354
10.04710830513294,-3.836984831874033,43.79267797520666,26.077295493874857,85.90864684978165,101.45083004135682,210.26694299648628,149.26318119245286,-67.85426001295642,7.877749975524354