8.032580680578072,10.278721366787714,32.92567171840095,71.24899841214648,65.30575283136481,86.65178088509009,208.02024205949283,204.02539089579147,-129.7729610084801,7.877749975524354
8.032580680578072,10.278721366787714,32.92567171840095,71.24899841214648,65.30575283136481,86.65178088509009,208.02024205949283,204.02539089579147,-119.87594014060313,7.877749975524354
9.039844492855506,15.552100864797382,32.92567171840095,71.24899841214648,113.36400045486704,86.65178088509009,208.02024205949283,204.02539089579147,-139.6699818763571,2.1129689648564463
10.04710830513294,10.278721366787714,32.92567171840095,71.24899841214648,65.30575283136481,86.65178088509009,208.02024205949283,204.02539089579147,-117.0606720327072,7.877749975524354