8.032580680578072,10.278721366787714,32.92567171840095,71.24899841214648,65.30575283136481,-9.51941454049159,208.02024205949283,204.02539089579147,-129.7729610084801,7.877749975524354
8.032580680578072,10.278721366787714,41.808817495388034,58.360502115916006,65.30575283136481,86.65178088509009,208.02024205949283,204.02539089579147,-119.87594014060313,7.877749975524354
8.032580680578072,27.247812148871127,32.92567171840095,71.24899841214648,65.30575283136481,86.65178088509009,208.02024205949283,204.02539089579147,-129.7729610084801,7.877749975524354
9.039844492855506,12.915411115792548,32.92567171840095,71.24899841214648,65.30575283136481,86.65178088509009,214.77772236401125,204.02539089579147,-133.65442384500776,7.880192031523323