8.032580680578072,22.40105792758967,41.808817495388034,58.360502115916006,65.30575283136481,86.65178088509009,608.0390168673241,205.6410754710485,-127.72151322945591,7.877749975524354
8.032580680578072,24.945292659029263,41.808817495388034,58.360502115916006,65.30575283136481,86.65178088509009,608.0390168673241,204.02539089579147,-123.1502664158376,7.877749975524354
8.032580680578072,24.824435038230398,41.808817495388034,58.360502115916006,65.30575283136481,86.65178088509009,608.0390168673241,204.02539089579147,-123.1502664158376,7.877749975524354
8.032580680578072,24.824435038230398,41.808817495388034,58.360502115916006,65.30575283136481,86.65178088509009,608.0390168673241,204.02539089579147,-123.1502664158376,7.877749975524354