9.716195261076628,10.0,20.0,26.077295493874857,100.0,100.0,200.75,202.48689274636095,29.938167192114413,30.0
10.04710830513294,10.0,20.0,26.077295493874857,92.5519294466116,100.0,200.5,202.48689274636095,29.939411203482358,30.0
10.0,10.0,20.0,26.077295493874857,85.10385889322319,100.0,194.7141658054741,200.0,30.0,30.0
10.0,10.0,20.0,26.077295493874857,85.10385889322319,100.0,194.7141658054741,200.0,30.0,30.0