5,15,10,30,50,150,100,300,15,45
10,10,21,20,100,100.0,201,200,30.0,30
10,10,21,21,88.36979544086772,100,207.69759189291776,201,30,30
10,10,21,107.57270155123882,84.14764308541578,100,201,199.90328633990126,30,30