6.015746303837397,7.724717113527843,59.181903062667025,58.20811436291199,138.78071816732927,110.9193444791673,606.2124062811779,1438.0413406152813,-4.683189947920686,-19.341673507070055
6.015746303837397,7.724717113527843,53.687707946074006,58.20811436291199,122.41051579879417,110.9193444791673,606.2124062811779,1438.0413406152813,-4.683189947920686,-18.969597669513263
6.015746303837397,7.724717113527843,63.28661930614517,58.20811436291199,155.49919566896165,110.9193444791673,606.2124062811779,1438.0413406152813,-4.683189947920686,-19.341673507070055
6.015746303837397,7.724717113527843,59.181903062667025,58.20811436291199,138.78071816732927,110.9193444791673,606.2124062811779,1438.0413406152813,-4.683189947920686,-19.341673507070055