16.097100397636787,3.2740535760651586,144.43329321715933,58.37122425575407,245.43795353580416,128.80760502154934,1965.9463034936643,1686.0950191189966,-6.395834419268288,-21.143654547876352
5.684325587516898,3.249209632474052,144.43329321715933,81.15179416440444,245.30627181271484,76.95446099833602,1983.015135936079,1428.785804533552,-4.663662488159803,-20.242664027473204
16.097100397636787,3.2740535760651586,144.43329321715933,81.15179416440444,245.43795353580416,128.80760502154934,1965.9463034936643,1570.4263985225828,-4.663662488159803,-21.143654547876352
10.626525150575569,3.2740535760651586,144.43329321715933,69.76150921007925,245.2623779050184,126.70186905761084,1965.9463034936643,1686.0950191189966,-4.663662488159803,-19.341673507070055