10.626525150575569,3.2740535760651586,123.40132891799213,81.15179416440444,238.06522622280679,102.88103300994268,1983.015135936079,1628.2607088207897,-6.395834419268288,-20.242664027473204
10.626525150575569,-1.0453371572056553,144.43329321715933,81.15179416440444,245.2623779050184,102.88103300994268,1983.015135936079,1628.2607088207897,-6.395834419268288,-20.242664027473204
13.361812774106177,3.2740535760651586,144.43329321715933,69.76150921007925,245.2623779050184,76.95446099833602,2065.853659558622,1686.0950191189966,-6.395834419268288,-20.242664027473204
10.626525150575569,3.2740535760651586,123.40132891799213,81.15179416440444,245.2623779050184,102.88103300994268,1983.015135936079,1628.2607088207897,-6.395834419268288,-20.242664027473204