-5.7637293619061944,-1.0453371572056553,159.4827675215418,81.15179416440444,245.2623779050184,102.88103300994268,1995.664464429717,1636.7161691473295,-191.4238917901779,-30.090363588236904
-5.7637293619061944,-1.0453371572056553,124.69366766079798,81.15179416440444,245.2623779050184,102.88103300994268,1983.015135936079,1627.2207207471167,-6.395834419268288,-27.12142699597801
-3.997857866651343,-0.26962379947284076,123.40132891799213,81.15179416440444,245.2623779050184,102.88103300994268,1983.015135936079,1627.2207207471167,-6.748274497095881,-27.12142699597801
-3.997857866651343,-0.26962379947284076,123.40132891799213,81.15179416440444,245.2623779050184,102.88103300994268,1983.015135936079,1627.740714783953,-6.572054458182085,-27.12142699597801