-2.165998175917236,36.36391588356881,142.0882175911699,171.628930691294,252.73880429550292,183.54457064648182,1911.8843843126072,1636.7161691473295,-214.07471030375865,71.94759100700804
2.1011072457066002,35.40221639117607,142.0882175911699,171.628930691294,252.73880429550292,173.3769573061242,1957.3691219630618,1636.7161691473295,-214.07471030375865,-28.47401302366512
-2.165998175917236,35.40221639117607,142.0882175911699,171.628930691294,252.73880429550292,173.3769573061242,1957.3691219630618,1636.7161691473295,-214.07471030375865,-28.47401302366512
-2.165998175917236,35.40221639117607,142.0882175911699,171.628930691294,252.73880429550292,173.3769573061242,1957.3691219630618,1636.7161691473295,-214.07471030375865,-28.47401302366512