1.0343308903006412,35.23526105901499,142.0882175911699,169.10867665081508,252.73880429550292,183.54457064648182,1957.3691219630618,1636.7161691473295,-214.07471030375865,71.94759100700804
1.0343308903006412,35.23526105901499,142.0882175911699,169.3586952765267,252.73880429550292,183.54457064648182,1957.3691219630618,1636.7161691473295,-214.07471030375865,71.94759100700804
1.0343308903006412,35.23526105901499,142.0882175911699,189.38867461486103,252.73880429550292,183.54457064648182,1957.3691219630618,1636.7161691473295,-214.07471030375865,71.94759100700804
1.0343308903006412,35.23526105901499,142.0882175911699,359.67468856419924,252.73880429550292,183.54457064648182,1957.3691219630618,1636.7161691473295,-104.08692185823698,71.94759100700804