1.0343308903006412,35.23526105901499,160.04834822580958,189.38867461486103,252.73880429550292,183.54457064648182,1906.1489994082726,1636.7161691473295,-214.07471030375865,71.94759100700804
1.0343308903006412,36.527855909843055,160.02244079288343,179.37368494569387,252.73880429550292,180.14242316526332,1452.304325658766,1636.3690333938646,-214.84453510336905,72.58787798134799
1.0343308903006412,35.23526105901499,160.02244079288343,189.38867461486103,252.73880429550292,180.14242316526332,1452.304325658766,1636.3690333938646,-214.07471030375865,71.94759100700804
1.0343308903006412,36.527855909843055,160.02244079288343,179.37368494569387,252.73880429550292,181.84349690587257,1679.2266625335192,1636.3690333938646,-214.84453510336905,71.94759100700804