1.0343308903006412,36.527855909843055,160.04834822580958,201.06275055406883,254.04812252581533,179.15628428834955,1452.304325658766,1636.3690333938646,-214.07471030375865,72.58787798134799
1.0343308903006412,35.23526105901499,160.0353945093465,160.84567650714433,226.444824146142,180.14242316526332,1452.304325658766,1636.3690333938646,-214.84453510336905,61.524357380374
1.0343308903006412,35.242359768217575,198.1031198883603,179.37368494569387,252.73880429550292,106.21044344804824,1452.304325658766,1636.3690333938646,-214.07471030375865,72.58787798134799
1.0343308903006412,35.23526105901499,160.04834822580958,160.84567650714433,252.73880429550292,183.54457064648182,1906.1489994082726,1636.7161691473295,-214.07471030375865,50.46083677940002