1.0351161829616298,3.6743233222212694,160.04834822580958,160.84567650714433,246.4926388157408,186.25298251152995,1463.5483523456521,1636.3690333938646,-214.07471030375865,50.46083677940002
1.0351161829616298,3.6743233222212694,160.0451097966938,160.84567650714433,232.83834927579196,181.59696218664413,1446.427086923194,1636.3690333938646,-214.07471030375865,57.94881422980392
1.0351161829616298,3.6743233222212694,160.0451097966938,160.84567650714433,246.4926388157408,118.32311447668309,1463.5483523456521,1636.3690333938646,-214.07471030375865,50.46083677940002
1.0327882779797075,3.6743233222212694,160.0451097966938,160.84567650714433,234.50512552298986,181.59696218664413,1446.427086923194,1636.3690333938646,-214.07471030375865,57.94881422980392