1.0339522304706685,3.6743233222212694,160.0451097966938,144.14676874372415,234.50512552298986,113.3537280307136,1463.5483523456521,1636.3690333938646,-214.07471030375865,50.600317829075294
1.0351161829616298,4.656245395502369,160.0451097966938,144.14676874372415,246.4926388157408,113.3537280307136,1463.5483523456521,1636.3690333938646,-214.07471030375865,50.431637760444275
1.0339522304706685,3.6743233222212694,160.0451097966938,144.14676874372415,234.50512552298986,113.3537280307136,1463.5483523456521,1636.3690333938646,-214.07471030375865,50.600317829075294
1.0339522304706685,3.6743233222212694,167.923328026911,144.14676874372415,246.4926388157408,149.9600383316636,1450.7074032788087,1636.3690333938646,-321.2806518012769,50.515977794759785