1.0339522304706685,-1.893778454664289,160.0451097966938,133.7576391376702,234.50512552298986,113.3537280307136,1463.5483523456521,1636.3690333938646,-214.07471030375865,112.6649003835006
-0.9867468003118128,3.6743233222212694,160.0451097966938,123.36850953161625,234.50512552298986,113.3537280307136,1463.5483523456521,1636.3690333938646,-269.1129225609102,50.600317829075294
1.0339522304706685,3.6743233222212694,160.0451097966938,128.56307433464323,234.50512552298986,113.3537280307136,1463.5483523456521,1636.3690333938646,-214.07471030375865,50.600317829075294
1.0339522304706685,3.6743233222212694,160.0451097966938,133.7576391376702,234.50512552298986,75.01981372541475,1463.5483523456521,1636.3690333938646,-214.07471030375865,50.600317829075294