-0.4775104607699826,3.6743233222212694,160.0451097966938,229.16191974850113,150.6867289435156,113.34157731989514,1463.5483523456521,1636.3690333938646,-129.33505224746202,50.600317829075294
-0.4775104607699826,3.6743233222212694,160.0451097966938,229.16191974850113,150.6867289435156,113.34157731989514,1463.5483523456521,1636.3690333938646,-129.33505224746202,50.600317829075294
-0.4775104607699826,3.6743233222212694,160.0451097966938,229.16191974850113,150.6867289435156,113.32942660907668,4410.505110774521,1636.3690333938646,-129.33505224746202,50.600317829075294
-0.4775104607699826,3.6743233222212694,160.0451097966938,229.16191974850113,150.6867289435156,113.32942660907668,4410.505110774521,1636.3690333938646,-129.33505224746202,50.600317829075294