0.5575013320711447,3.6743233222212694,160.0451097966938,180.44241761587915,210.55084747380678,304.14887557596705,1119.1884428095473,1596.627034084741,-298.574674728794,60.89039969495511
0.5575013320711447,3.6743233222212694,160.0451097966938,180.44241761587915,210.55084747380678,405.7551661832425,1119.1884428095473,3124.9535728942374,-298.574674728794,60.89039969495511
0.5575013320711447,3.6743233222212694,160.0451097966938,180.44241761587915,210.55084747380678,304.14887557596705,1119.1884428095473,3124.9535728942374,-298.574674728794,60.89039969495511
0.5575013320711447,3.6743233222212694,160.0451097966938,180.44241761587915,210.55084747380678,405.7551661832425,1119.1884428095473,1596.627034084741,-298.574674728794,60.89039969495511