0.39170818882159397,3.6743233222212694,160.0451097966938,180.44241761587915,210.55084747380678,306.39915070461706,1119.1884428095473,1596.627034084741,-298.574674728794,60.89039969495511
0.39170818882159397,3.6743233222212694,160.0451097966938,180.44241761587915,210.55084747380678,304.14887557596705,1123.4252104215961,3124.9535728942374,-298.574674728794,60.89039969495511
0.8224056793573358,3.6743233222212694,160.0451097966938,180.44241761587915,210.55084747380678,304.14887557596705,1119.1884428095473,2360.790303489489,-207.44899455771835,60.89039969495511
0.5575013320711447,3.6743233222212694,160.0451097966938,180.44241761587915,210.55084747380678,306.39915070461706,1119.1884428095473,1596.627034084741,-298.574674728794,60.89039969495511