0.47460476044636934,3.6743233222212694,163.47332117972903,180.44241761587915,193.1831390132446,306.39915070461706,1123.4252104215961,1596.627034084741,-207.44899455771835,60.89039969495511
0.39170818882159397,3.6743233222212694,160.0451097966938,180.44241761587915,210.55084747380678,306.39915070461706,1119.1884428095473,1596.627034084741,-207.44899455771835,75.45313012950223
0.47460476044636934,3.6743233222212694,163.47332117972903,180.44241761587915,193.1831390132446,306.39915070461706,1123.4252104215961,1596.4343501732612,-207.44899455771835,60.89039969495511
0.39170818882159397,3.6743233222212694,160.0451097966938,178.57389949618138,175.81543055268244,306.39915070461706,1123.4252104215961,1596.627034084741,-207.44899455771835,60.89039969495511