0.46165217112999823,3.778867396289017,200.13404722052667,176.7621812265297,210.3567179232245,306.39915070461706,1132.4478444517276,1596.627034084741,-207.44899455771835,62.165812374720005
0.4629474300616353,3.778867396289017,218.46441024092547,180.44241761587915,210.3567179232245,306.39915070461706,1141.470478481859,1701.6014831913722,-207.44899455771835,64.71663773424979
0.4642426889932724,3.205802902044172,163.47332117972903,180.44241761587915,210.3567179232245,306.39915070461706,1123.4252104215961,1701.6014831913722,-207.44899455771835,60.89039969495511
0.46165217112999823,4.351931890533862,200.13404722052667,180.44241761587915,210.3567179232245,306.39915070461706,2652.514808487207,1701.6014831913722,-207.44899455771835,65.99205041401468