0.4642426889932724,0.18523686239167877,221.06696023973063,180.44241761587915,210.3567179232245,304.91563656578296,1558.556891519498,1401.3230973813686,-679.3298148350691,-21.16570904025635
1.3423074640906458,-1.1738127252776533,221.06696023973063,180.44241761587915,210.3567179232245,306.39915070461706,1558.556891519498,1401.3230973813686,-679.3298148350691,-31.825680035371292
1.3423074640906458,0.18523686239167877,221.06696023973063,180.44241761587915,210.3567179232245,306.39915070461706,2007.1786702610752,1401.3230973813686,-679.3298148350691,-10.505738045141406
1.3423074640906458,-1.1738127252776533,221.06696023973063,180.44241761587915,149.430377492783,306.39915070461706,2007.1786702610752,1401.3230973813686,-679.3298148350691,-31.825680035371292