0.4642426889932724,-0.6541079632736776,237.15980235112949,186.08114207166952,573.5232643057235,265.232087280731,1782.8677808902867,1017.812659895757,-679.3298148350691,-41.66840953398002
0.4642426889932724,-0.49428793144298727,237.15980235112949,186.08114207166952,542.9883801450959,265.232087280731,1782.8677808902867,1017.812659895757,-677.6450308463894,-42.953593494038714
0.4642426889932724,-0.49428793144298727,237.15980235112949,173.90167860401164,573.5232643057235,265.232087280731,1782.8677808902867,288.80103273424527,-675.9602468577098,-41.66840953398002
0.4642426889932724,-0.49428793144298727,237.15980235112949,173.90167860401164,573.5232643057235,265.232087280731,1782.8677808902867,1017.812659895757,-679.3298148350691,-41.66840953398002