0.46584176761924917,-0.45630272056525156,237.15980235112949,279.07198202482533,750.2072213047882,265.232087280731,2202.9571144697284,1384.4062703734237,-675.9602468577098,-46.671924300922186
0.4642426889932724,-0.45630272056525156,237.15980235112949,279.07198202482533,750.2072213047882,265.232087280731,2202.9571144697284,1384.4062703734237,-675.9602468577098,-46.671924300922186
0.4642426889932724,-0.45630272056525156,237.15980235112949,279.07198202482533,750.2072213047882,265.232087280731,1975.5123947941033,1384.4062703734237,-675.9602468577098,-41.66840953398002
0.4642426889932724,-0.45630272056525156,237.15980235112949,279.07198202482533,750.2072213047882,265.232087280731,1748.0676751184783,874.7283152283717,-675.9602468577098,-46.671924300922186