0.4642426889932724,-0.13396997453066795,231.9748614027243,279.07198202482533,430.6137719066558,265.232087280731,2089.234754631916,1516.5344259361066,-675.9602468577098,-46.671924300922186
0.4642426889932724,-0.45630272056525156,243.97495668221507,279.07198202482533,750.2072213047882,265.232087280731,1975.5123947941033,1129.5672928008976,-675.9602468577098,-46.671924300922186
0.4642426889932724,-0.45630272056525156,237.15980235112949,279.07198202482533,750.2072213047882,265.232087280731,2202.9571144697284,1129.5672928008976,-675.9602468577098,-46.633781673021055
0.4642426889932724,-0.45630272056525156,237.15980235112949,279.07198202482533,750.2072213047882,265.232087280731,2146.095934550822,1129.5672928008976,-675.9602468577098,-46.671924300922186