0.43230336128008817,-0.21455316103931385,243.97495668221507,279.07198202482533,750.2072213047882,190.25698045426762,2146.095934550822,1130.6580037357307,-527.7668794067849,-131.91977297458132
0.40036403356690387,-0.21455316103931385,243.97495668221507,279.07198202482533,750.2072213047882,190.25698045426762,2146.095934550822,1131.748714670564,-509.0592896312434,-197.44673335204718
0.40036403356690387,-0.21455316103931385,243.97495668221507,279.07198202482533,750.2072213047882,227.74453386749929,2146.095934550822,1131.748714670564,-509.0592896312434,-191.57883927271735
0.4642426889932724,-0.7412002420270418,243.97495668221507,279.07198202482533,750.2072213047882,218.4138900024626,2146.095934550822,1131.748714670564,-546.4744691823264,-72.26070667644531