0.3850545318080436,-0.33025078937931834,93.34036928262609,279.07198202482533,750.2072213047882,165.42914498781028,4668.289566751946,1565.677561745049,-527.7668794067849,-102.09023982551332
0.3850545318080436,-0.3880996035493206,93.34036928262609,279.07198202482533,728.3526307619334,150.37229893282054,2881.9251570148404,1565.677561745049,-527.7668794067849,-151.492419731963
0.4754958423997911,-0.33025078937931834,243.97495668221507,279.07198202482533,735.752481705365,356.91958861299696,2146.095934550822,1565.677561745049,-527.7668794067849,-102.09023982551332
0.4754958423997911,-0.5351141257766765,243.97495668221507,708.7903401728955,750.2072213047882,165.42914498781028,2146.095934550822,3733.7469672805787,-527.7668794067849,-102.09023982551332