0.43563790576864725,-0.39592882702115845,523.2954518378476,493.93116109886046,732.0525562336492,356.91958861299696,2330.053240166827,2107.694913128931,-527.7668794067849,-102.09023982551332
0.4410006244333772,-0.33025078937931834,243.97495668221507,279.07198202482533,742.9798515050766,261.1743668004036,2146.095934550822,1565.677561745049,-527.7668794067849,-102.09023982551332
0.43563790576864725,-0.39592882702115845,523.2954518378476,493.93116109886046,732.0525562336492,356.91958861299696,2330.053240166827,2107.694913128931,-527.7668794067849,-102.09023982551332
0.4410006244333772,-0.33025078937931834,243.97495668221507,279.07198202482533,750.2072213047882,165.42914498781028,2146.095934550822,1565.677561745049,-527.7668794067849,-102.09023982551332