0.4383192651010122,-0.33025078937931834,383.63520426003134,403.1742031520767,737.5162038693629,309.0469777067003,2330.053240166827,2107.694913128931,-527.7668794067849,-102.09023982551332
0.43563790576864725,0.36609936836007784,383.63520426003134,386.50157156184287,737.5162038693629,382.34843422986444,2330.053240166827,2107.694913128931,-1183.7374420352462,-102.09023982551332
0.4383192651010122,-0.33025078937931834,383.63520426003134,403.1742031520767,737.5162038693629,309.0469777067003,2330.053240166827,2107.694913128931,-1183.7374420352462,-102.09023982551332
0.4383192651010122,-0.33025078937931834,453.46532804893945,493.93116109886046,737.5162038693629,332.9832831598486,2330.053240166827,2107.694913128931,-527.7668794067849,-102.09023982551332