-1.7048302426690243,-0.33025078937931834,383.63520426003134,437.8400048190403,654.1877018667608,382.34843422986444,2330.053240166827,2069.5069352707133,-1183.7374420352462,-102.09023982551332
0.43563790576864725,0.34589089993495004,383.63520426003134,386.50157156184287,737.5162038693629,382.34843422986444,2330.053240166827,2107.694913128931,-1183.7374420352462,-102.09023982551332
-1.7048302426690243,0.017924289490379747,383.63520426003134,440.21636633035166,695.8519528680619,382.34843422986444,2330.053240166827,2107.694913128931,-855.7521607210156,-102.09023982551332
-1.7048302426690243,-0.33025078937931834,383.63520426003134,386.50157156184287,737.5162038693629,382.34843422986444,2330.053240166827,2107.694913128931,-1183.7374420352462,-102.09023982551332