-1.7048302426690243,-0.33025078937931834,383.63520426003134,386.70891621826576,737.5162038693629,252.24393611767894,2330.053240166827,2107.694913128931,-1183.7374420352462,-107.27231276660834
-2.149573495296229,-0.33025078937931834,383.63520426003134,386.60524389005434,737.5162038693629,382.34843422986444,2330.053240166827,2107.694913128931,-1183.7374420352462,-102.24271439476593
-1.7048302426690243,-0.33025078937931834,383.63520426003134,386.50157156184287,737.5162038693629,252.24393611767894,2330.053240166827,2107.694913128931,-1183.7374420352462,-102.09023982551332
-1.7048302426690243,-0.33025078937931834,383.63520426003134,386.50157156184287,737.5162038693629,252.24393611767894,2330.053240166827,2107.694913128931,-1183.7374420352462,-102.39518896401852