-2.5438016030336703,0.47257261595733197,383.63520426003134,644.3320042792905,582.0448910232974,317.2961851737717,2330.053240166827,4428.957956642582,-1183.7374420352462,-170.682609097634
-2.149573495296229,-0.13246043600717586,383.63520426003134,644.3320042792905,737.5162038693629,317.2961851737717,2425.879036566739,2107.694913128931,-1183.7374420352462,-136.46266174619996
-2.938029710771111,-0.37733016486259874,383.63520426003134,644.3320042792905,737.5162038693629,317.2961851737717,2330.053240166827,4428.957956642582,-1183.7374420352462,-170.682609097634
-2.149573495296229,-0.2548953004348873,383.63520426003134,644.3320042792905,737.5162038693629,317.2961851737717,2330.053240166827,4428.957956642582,-1183.7374420352462,-170.682609097634