-2.3466875491649497,-0.04241960522990462,383.63520426003134,644.3320042792905,737.5162038693629,317.2961851737717,2377.966138366783,2171.2742682449666,-1183.7374420352462,-145.01764858405846
-2.149573495296229,-0.04241960522990462,383.63520426003134,644.3320042792905,737.5162038693629,317.2961851737717,2377.966138366783,2171.2742682449666,-1183.7374420352462,-153.02131095254677
-2.149573495296229,-0.04241960522990462,383.63520426003134,644.3320042792905,737.5162038693629,317.2961851737717,2377.966138366783,2171.2742682449666,-1183.7374420352462,-153.57263542191697
-2.3466875491649497,-0.04241960522990462,383.63520426003134,644.3320042792905,737.5162038693629,317.2961851737717,2401.922587466761,2139.4845906869486,-1183.7374420352462,-145.01764858405846