11.227975146728685,10.525410070525263,52.00473329779091,73.13265905284638,90.2282096883388,109.68594205509837,468.49664374843485,245.08888005660387,29.152889682214465,-5.469218388361117
10.181738892751794,11.185865626592888,51.88299175230948,73.13265905284638,89.7017695818183,109.68594205509837,509.59374987002803,245.08888005660387,30.120998789319323,-5.469218388361117
10.181738892751794,10.525410070525263,51.88299175230948,73.13265905284638,89.7017695818183,108.6967732543865,427.3995376268416,245.08888005660387,30.094284567059958,-5.469218388361117
11.727517197502173,10.525410070525263,52.12647484327234,73.13265905284638,89.7017695818183,109.68594205509837,427.3995376268416,245.08888005660387,28.21149479736897,-5.469218388361117