-2.149573495296229,-0.044947322799082465,476.29913461938753,145.63603001657742,737.5162038693629,317.2961851737717,2389.9443629167718,2171.2742682449666,-1183.7374420352462,-154.63078229166936
-2.149573495296229,-0.044947322799082465,498.84254360338923,499.8164963655237,737.5162038693629,151.8578779888064,2389.9443629167718,2171.2742682449666,-1183.7374420352462,-154.63078229166936
-2.149573495296229,-0.044947322799082465,498.84254360338923,145.63603001657742,737.5162038693629,317.2961851737717,2382.457972573029,2177.072898279961,-1183.7374420352462,-154.63078229166936
-2.149573495296229,-0.044947322799082465,498.84254360338923,145.63603001657742,737.5162038693629,317.2961851737717,2377.966138366783,2171.2742682449666,-1183.7374420352462,-154.63078229166936