-2.149573495296229,-0.044947322799082465,476.29913461938753,145.63603001657742,737.5162038693629,255.25681997940967,5280.87775577128,2177.072898279961,-1183.7374420352462,-154.5967671729411
-2.149573495296229,-0.044947322799082465,476.29913461938753,145.63603001657742,737.5162038693629,255.25681997940967,5280.87775577128,2177.072898279961,-1183.7374420352462,-154.5967671729411
-2.149573495296229,-0.07162927712040996,476.29913461938753,145.63603001657742,795.5853587565172,265.59671417847,2389.9443629167718,2177.072898279961,-1183.7374420352462,-154.63078229166936
-2.149573495296229,-0.044947322799082465,476.29913461938753,145.63603001657742,737.5162038693629,255.25681997940967,5280.87775577128,2177.072898279961,-1183.7374420352462,-154.5967671729411