-2.149573495296229,-0.07162927712040996,476.29913461938753,145.63603001657742,737.5162038693629,257.84179352917477,2389.9443629167718,2177.072898279961,-1190.2348811770794,-527.3466954720277
-2.149573495296229,-0.07162927712040996,476.29913461938753,145.63603001657742,737.5162038693629,257.84179352917477,2389.9443629167718,2177.072898279961,-1183.7374420352462,-479.42461885285576
-2.149573495296229,-0.07162927712040996,476.29913461938753,145.63603001657742,737.5162038693629,257.84179352917477,2389.9443629167718,2177.072898279961,-1183.7374420352462,-527.3466954720277
-2.149573495296229,-0.07162927712040996,476.29913461938753,145.63603001657742,737.5162038693629,257.84179352917477,2389.9443629167718,2177.072898279961,-1183.7374420352462,-479.42461885285576