-2.149573495296229,-0.07162927712040996,476.29913461938753,332.12255458988966,737.5162038693629,243.6007669084774,2389.9443629167718,2234.498425894089,-1190.2348811770794,-479.42461885285576
-2.149573495296229,-0.07162927712040996,476.29913461938753,332.12255458988966,737.5162038693629,250.72128021882608,2389.9443629167718,2177.072898279961,-1190.2348811770794,-479.42461885285576
-2.149573495296229,-0.07162927712040996,476.29913461938753,332.12255458988966,737.5162038693629,250.72128021882608,2389.9443629167718,2177.072898279961,-280.6640772164242,-479.42461885285576
-2.149573495296229,-0.07193565514028899,476.29913461938753,518.609079163202,737.5162038693629,229.35974028778003,2389.9443629167718,2177.072898279961,-1186.9861616061628,-527.3466954720277