-2.149573495296229,-0.0718399120090768,476.29913461938753,487.21568255788293,737.5162038693629,229.35974028778003,2389.9443629167718,2177.072898279961,-733.8251194112935,-105.71424915436819
-2.149573495296229,-0.0718399120090768,476.29913461938753,487.21568255788293,737.5162038693629,229.35974028778003,2389.9443629167718,2177.072898279961,-742.9134211883272,-105.71424915436819
-2.149573495296229,-0.0718399120090768,476.29913461938753,487.21568255788293,737.5162038693629,229.35974028778003,2389.9443629167718,2177.072898279961,-742.9134211883272,-105.71424915436819
-2.149573495296229,-0.07185906063531923,476.29913461938753,533.8373137012111,737.5162038693629,229.35974028778003,2389.9443629167718,2177.072898279961,-733.8251194112935,-491.4051380076487