-2.149573495296229,-0.0718399120090768,476.29913461938753,195.2702758712852,737.5162038693629,229.35974028778003,2392.9247195227963,2177.072898279961,-736.0971948555518,-111.08664680285305
-2.149573495296229,-0.0718399120090768,527.7912602580482,195.2702758712852,737.5162038693629,229.35974028778003,2392.9247195227963,2177.072898279961,-733.8251194112935,-111.08664680285305
-2.149573495296229,-0.0718399120090768,476.29913461938753,195.2702758712852,737.5162038693629,229.35974028778003,2392.9247195227963,2177.072898279961,-733.8251194112935,-111.08664680285305
-2.149573495296229,-0.0718399120090768,527.7912602580482,195.2702758712852,737.5162038693629,229.35974028778003,2392.9247195227963,2177.072898279961,-733.8251194112935,-108.40044797861063