-2.120449287785978,-0.0718399120090768,230.73839103458872,195.2702758712852,737.5162038693629,226.7695101044558,2392.9247195227963,2177.072898279961,-694.7176857554448,-111.08664680285305
-2.149573495296229,-0.0718399120090768,476.29913461938753,195.2702758712852,737.5162038693629,229.35974028778003,2392.9247195227963,2177.072898279961,-736.0971948555518,-111.08664680285305
-2.149573495296229,-0.0718399120090768,476.29913461938753,195.2702758712852,737.5162038693629,229.35974028778003,2392.9247195227963,2177.072898279961,-733.8251194112935,-111.08664680285305
-2.149573495296229,-0.0718399120090768,476.29913461938753,195.2702758712852,737.5162038693629,229.35974028778003,2392.9247195227963,2177.072898279961,-736.0971948555518,-111.08664680285305