-2.149573495296229,-0.05658774130243065,229.6626824049528,358.61292073347335,737.5162038693629,692.3879870192313,2396.113360796778,2177.072898279961,-1026.3592147169668,18.95269211939003
-2.149573495296229,-0.05658774130243065,229.6626824049528,358.61292073347335,809.1051414233489,687.7519201621939,2396.113360796778,2177.072898279961,-1026.3592147169668,18.95269211939003
-2.149573495296229,-0.05658774130243065,229.6626824049528,358.61292073347335,737.5162038693629,690.0699535907127,2396.113360796778,2177.072898279961,-1026.3592147169668,18.95269211939003
-2.149573495296229,-0.05658774130243065,229.6626824049528,358.61292073347335,737.5162038693629,692.3879870192313,2396.113360796778,2177.072898279961,-1026.3592147169668,18.95269211939003