-2.3276827711387416,-0.06245353105260349,229.6626824049528,358.61292073347335,737.5162038693629,754.7971819139146,5176.469166849617,1942.8194883391168,-1026.3592147169668,18.95269211939003
-2.528601146258632,-0.058840403247306404,229.6626824049528,623.8440008897786,737.5162038693629,703.1854157376208,5176.469166849617,1942.8194883391168,-1026.3592147169668,18.95269211939003
-2.3276827711387416,-0.06245353105260349,229.6626824049528,358.61292073347335,737.5162038693629,754.7971819139146,5176.469166849617,1942.8194883391168,-1026.3592147169668,18.95269211939003
-2.51380683101864,-0.058840403247306404,229.6626824049528,889.0750810460838,737.5162038693629,692.9638274768598,5176.469166849617,1942.8194883391168,-1026.3592147169668,18.95269211939003