1.4701893376629975,-0.04768115776166428,203.95839903332444,623.8440008897786,1063.0801395378385,680.6776455810027,5176.469166849617,3264.540991599872,-1026.3592147169668,18.95269211939003
-0.5292059042978172,-0.05484152391930282,229.6626824049528,767.1053551778882,1063.0801395378385,593.8293852579772,5176.469166849617,3264.540991599872,-720.7514925385315,18.95269211939003
-0.5292059042978172,-0.05484152391930282,229.6626824049528,767.1053551778882,1063.0801395378385,680.6776455810027,5176.469166849617,3264.540991599872,-720.7514925385315,18.95269211939003
1.4701893376629975,-0.05484152391930282,229.6626824049528,767.1053551778882,1063.0801395378385,680.6776455810027,5176.469166849617,1872.0124241775193,-1026.3592147169668,18.95269211939003