-0.014378702667521016,-0.055564410602330624,214.5476444353703,650.2637713119464,1063.0801395378385,680.6776455810027,6223.504469935936,2916.4088497442835,-870.831137248422,18.95269211939003
0.2190557087512518,-0.055564410602330624,214.5476444353703,650.2637713119464,1063.0801395378385,680.6776455810027,5176.469166849617,2916.4088497442835,-870.831137248422,18.95269211939003
-0.014378702667521016,-0.055564410602330624,214.5476444353703,650.2637713119464,1063.0801395378385,680.6776455810027,6223.504469935936,2916.4088497442835,-870.831137248422,18.95269211939003
0.2190557087512518,-0.055564410602330624,214.5476444353703,650.2637713119464,1063.0801395378385,680.6776455810027,5176.469166849617,2916.4088497442835,-870.831137248422,18.95269211939003