-0.5461805236620458,-0.055564410602330624,155.36175696516085,650.2637713119464,-71.18539699460939,638.3575419927374,5176.469166849617,2916.4088497442835,-870.831137248422,18.95269211939003
-0.5461805236620458,-0.055564410602330624,153.16709565396482,650.2637713119464,-71.18539699460939,680.6776455810027,5176.469166849617,2916.4088497442835,-870.831137248422,18.95269211939003
-0.5461805236620458,-0.055564410602330624,155.36175696516085,291.086011050179,-71.18539699460939,680.6776455810027,5176.469166849617,2916.4088497442835,-870.831137248422,18.95269211939003
-0.5461805236620458,-0.055564410602330624,155.36175696516085,650.2637713119464,-71.18539699460939,638.3575419927374,5176.469166849617,2916.4088497442835,-870.831137248422,18.95269211939003