-0.5461805236620458,-0.055564410602330624,154.26442630956285,0.5861102814181046,-71.18539699460939,680.6776455810027,0.029444705832121484,2916.4088497442835,-870.831137248422,18.95269211939003
0.7758917952790672,-0.055564410602330624,154.26442630956285,561.525573740318,-71.18539699460939,680.6776455810027,0.028869759772514922,3490.0225408108086,-870.831137248422,0.3903896924493738
-0.5740824222594384,-0.055564410602330624,482.846743085976,291.086011050179,-71.18539699460939,680.6776455810027,5859.314484247399,2306.773119338199,-870.831137248422,18.95269211939003
-0.5461805236620458,-0.055564410602330624,155.36175696516085,291.086011050179,-71.18539699460939,659.5175937868701,5176.469166849617,2916.4088497442835,-870.831137248422,18.95269211939003