0.8502202571512764,-0.055564410602330624,319.10425002556843,561.525573740318,-71.18294879413514,675.3876326324696,4223.78080373868,2916.4088497442835,-870.831137248422,14.312116512654866
-0.553155998311394,-0.055564410602330624,206.13302039016042,554.6254721931641,-71.18539699460939,675.3876326324696,2588.247123229962,3031.228237198807,-870.831137248422,14.312116512654866
0.23083083583562802,0.2732952891339616,0.21535750946079302,0.7017916982395629,0.38958983640059863,0.7080612625808645,0.8542509637865742,0.9423822295357419,0.8837511262166223,0.6382523601896858
-0.553155998311394,-0.055564410602330624,206.13302039016042,547.7253706460103,-71.18539699460939,675.3876326324696,2588.247123229962,3050.806762676025,-870.831137248422,14.312116512654866