-0.6692630628911403,-0.05281775510917128,94.35886502231536,554.6254721931641,2.1874658451789437,675.3876326324696,2588.247123229962,2983.607806210154,-870.831137248422,13.958547302779209
-0.6692630628911403,-0.05281775510917128,177.68375426257205,554.6254721931641,2.1874658451789437,2453.7732376549034,2588.247123229962,2983.607806210154,-870.831137248422,13.958547302779209
-0.6692630628911403,-0.05281775510917128,177.68375426257205,554.6254721931641,2.1874658451789437,672.1024772802249,2588.247123229962,2983.607806210154,-870.831137248422,13.958547302779209
-0.6692630628911403,-0.05281775510917128,177.68375426257205,554.6254721931641,2.1874658451789437,672.1024772802249,2588.247123229962,2983.607806210154,-870.831137248422,14.570327042432444