-0.6969758072475252,-0.053499324256539124,94.35886502231536,556.9328536089005,2.1874658451789437,673.7450549563473,2588.247123229962,2983.607806210154,-874.6327070997527,15.51478560297521
-0.6969758072475252,-0.04077458178710838,94.35886502231536,556.9328536089005,2.1874658451789437,673.7450549563473,2588.247123229962,2983.607806210154,-874.6327070997527,-0.31109167754530276
-0.6969758072475252,-0.05274107780454844,94.35886502231536,556.9328536089005,2.1874658451789437,673.7450549563473,2588.247123229962,2983.607806210154,-874.6327070997527,15.51478560297521
-0.6969758072475252,-0.05274107780454844,94.35886502231536,556.9328536089005,2.1874658451789437,673.7450549563473,2588.247123229962,2983.607806210154,-874.6327070997527,15.51478560297521