-0.6969758072475252,-0.04675782979582841,94.35886502231536,556.9328536089005,2.1874658451789437,673.7450549563473,2588.247123229962,2983.607806210154,-874.6327070997527,-0.31109167754530276
-1.0073699387619834,-0.053499324256539124,94.35886502231536,556.9328536089005,2.1874658451789437,673.7450549563473,2588.247123229962,3450.5190387810435,-874.6327070997527,15.51478560297521
-0.6969758072475252,-0.05274107780454844,-35.462150416128246,556.9328536089005,2.1874658451789437,673.7450549563473,2588.247123229962,3780.1831098860316,-874.6327070997527,15.51478560297521
-0.6969758072475252,-0.04675782979582841,94.35886502231536,556.9328536089005,2.1874658451789437,673.7450549563473,2588.247123229962,2983.607806210154,-874.6327070997527,-0.31109167754530276