-0.6969758072475252,-0.061277110221189854,29.448357303093555,556.9328536089005,2.1874658451789437,673.7450549563473,2589.8473183724154,2983.607806210154,-874.6327070997527,7.601846962714953
-0.6969758072475252,-0.05274107780454844,29.448357303093555,556.9328536089005,2.1874658451789437,673.7450549563473,2588.247123229962,2983.607806210154,-874.6327070997527,7.601846962714953
-1.0073699387619834,-0.05312020103054378,29.448357303093555,556.9328536089005,2.1874658451789437,673.7450549563473,2588.247123229962,3450.5190387810435,-874.6327070997527,15.51478560297521
-1.0073699387619834,-0.05312020103054378,29.448357303093555,556.9328536089005,2.1874658451789437,673.7450549563473,2588.247123229962,3450.5190387810435,-874.6327070997527,15.51478560297521