-0.5894927065218516,-0.05496986671520763,29.448357303093555,556.9328536089005,2.1874658451789437,673.7450549563473,2588.247123229962,2983.607806210154,-874.6327070997527,15.51478560297521
-0.5894927065218516,-0.05274107780454844,29.448357303093555,556.9328536089005,2.1874658451789437,673.7450549563473,2588.247123229962,2983.607806210154,-874.6327070997527,15.51478560297521
-1.0073699387619834,-0.05719865562586682,29.448357303093555,556.9328536089005,2.1874658451789437,673.7450549563473,2589.047220801189,2983.607806210154,-874.6327070997527,11.55831628284508
-1.0073699387619834,-0.05719865562586682,29.448357303093555,556.9328536089005,2.1874658451789437,673.7450549563473,2589.047220801189,2983.607806210154,-874.6327070997527,11.55831628284508