0.13196568408383247,2.2674343333035365,29.448357303093555,767.402395820945,1.4748305697102944,673.7450549563473,2589.047220801189,2237.9229731557434,-874.6327070997527,9.43882346176498
0.13196568408383247,1.935343906313622,78.57537098799959,767.402395820945,1.4748305697102944,673.7450549563473,2589.047220801189,2517.5547855511477,-874.6327070997527,9.43882346176498
0.13196568408383247,2.5995247602934515,78.57537098799959,662.1676247149228,1.4748305697102944,837.3552195493328,2589.047220801189,2237.9229731557434,-655.916288445906,9.085574658251629
0.13196568408383247,1.935343906313622,78.57537098799959,767.402395820945,1.4748305697102944,673.7450549563473,2589.047220801189,2517.5547855511477,-874.6327070997527,9.43882346176498