-0.13033334820071676,2.944611172214411,86.08960045918514,662.1676247149228,0.10603036041350325,484.73344366639003,2347.9638666646742,8857.172879355423,-830.9054931040954,11.263518784144484
-0.13033334820071676,2.944611172214411,78.57537098799959,662.1676247149228,1.4748305697102944,484.73344366639003,2589.047220801189,8414.893285794757,-830.9054931040954,11.263518784144484
-0.13033334820071676,2.944611172214411,78.57537098799959,662.1676247149228,1.4748305697102944,484.73344366639003,2347.9638666646742,8414.893285794757,-830.9054931040954,11.035311118859871
-0.13033334820071676,2.944611172214411,78.57537098799959,662.1676247149228,1.4748305697102944,484.73344366639003,2468.5055437329315,8414.893285794757,-830.9054931040954,10.807103453575259