-0.13033334820071676,2.944611172214411,78.57537098799959,223.7224109622799,1.4748305697102944,484.73344366639003,2347.9638666646742,9199.880181400686,-805.8787859410394,11.035311118859871
-0.13033334820071676,4.832379089967761,78.57537098799959,678.2465850649994,-1.9979708232392104,484.73344366639003,2347.9638666646742,8857.172879355423,-830.9054931040954,11.035311118859871
-0.13033334820071676,4.832379089967761,78.57537098799959,678.2465850649994,1.4748305697102944,484.73344366639003,2347.9638666646742,8857.172879355423,-830.9054931040954,11.035311118859871
-0.13033334820071676,2.944611172214411,78.57537098799959,223.7224109622799,1.4748305697102944,484.73344366639003,2347.9638666646742,8857.172879355423,-830.9054931040954,6.8653127290166385