5.372988230227968,8.681162772210438,52.29822907295913,83.35401602626541,157.52023773267894,109.56229595500938,465.01825015178633,532.8426395408432,9.213001106439991,-5.469218388361117
5.372988230227968,8.57401184761352,52.29822907295913,83.35401602626541,91.26342913057726,98.79228692215486,465.01825015178633,528.8635393719685,-4.693442914621198,-5.412531904224012
5.372988230227968,8.788313696807357,52.29822907295913,83.35401602626541,157.52023773267894,109.56229595500938,465.01825015178633,532.8426395408432,23.11944512750118,-5.469218388361117
5.372988230227968,8.57401184761352,52.29822907295913,83.35401602626541,91.26342913057726,109.56229595500938,465.01825015178633,528.8635393719685,-6.202702946789966,-5.412531904224012