-0.13064566103701525,7.580072864347529,166.57611564913907,829.0284019164507,0.8429545734807768,1137.3253662891966,7147.5170099412635,9199.880181400686,-1078.9919119971687,13.805213533350788
-0.13064566103701525,7.580072864347529,166.57611564913907,829.0284019164507,0.8429545734807768,1137.3253662891966,7147.5170099412635,9199.880181400686,-1078.9919119971687,13.805213533350788
-0.13064566103701525,8.360606323065486,166.8693023436935,829.0284019164507,0.8429545734807768,1353.977719778867,7147.5170099412635,9199.880181400686,-1380.8816301716465,13.828103086182368
-0.13064566103701525,7.580072864347529,166.57611564913907,829.0284019164507,1.1472532841268124,1353.977719778867,7147.5170099412635,396.0984292924543,-1380.8816301716465,13.805213533350788