-0.13064566103701525,8.360606323065486,166.8693023436935,828.2777920480031,0.8429545734807768,1353.977719778867,7147.5170099412635,9199.880181400686,-1005.0666812280035,13.828103086182368
-0.13064566103701525,8.360606323065486,166.57611564913907,829.0284019164507,0.8429545734807768,1137.3253662891966,7147.5170099412635,9199.880181400686,-1380.8816301716465,13.805213533350788
-0.13064566103701525,7.970339593706507,166.7227089964163,829.0284019164507,0.8429545734807768,1353.977719778867,7147.5170099412635,9199.880181400686,-1380.8816301716465,13.828103086182368
-0.13064566103701525,7.580072864347529,166.8693023436935,855.5567197445797,0.5599348793371544,1353.977719778867,7147.5170099412635,9199.880181400686,-1380.8816301716465,13.81302684644831