-0.13064566103701525,8.360606323065486,166.57611564913907,828.2777920480031,0.8429545734807768,1299.8146314064493,7147.5170099412635,9199.880181400686,-1005.0666812280035,13.81861163804096
-0.13064566103701525,8.360606323065486,166.57611564913907,855.5567197445797,0.8429545734807768,1245.6515430340319,7147.5170099412635,9199.880181400686,-1005.0666812280035,13.828103086182368
-0.13064566103701525,8.360606323065486,166.57611564913907,828.2777920480031,0.8429545734807768,1299.8146314064493,7147.5170099412635,9199.880181400686,-1005.0666812280035,13.81861163804096
-0.13064566103701525,8.360606323065486,166.57611564913907,828.2777920480031,0.8429545734807768,1245.6515430340319,7147.5170099412635,9199.880181400686,-1005.0666812280035,13.809120189899549