-0.09094717619827332,7.967962690779196,167.27408952232085,828.2777920480031,0.6990121059288146,1288.7919486779679,6254.1281806435545,9189.792012995887,-753.5660309523398,7.029398882659754
-0.11218425695340346,7.99830462852017,167.27408952232085,745.5899525380878,0.5550696383768524,1288.7919486779679,7147.5170099412635,9199.880181400686,-1005.0666812280035,13.158176289366912
-0.12846980776561862,5.196565072591547,167.27408952232085,745.5899525380878,0.5550696383768524,1288.7919486779679,18290.48981695846,9096.709768641133,-1005.0666812280035,13.158176289366912
-0.12846980776561862,7.99830462852017,167.27408952232085,745.5899525380878,0.5550696383768524,1288.7919486779679,7147.5170099412635,9199.880181400686,-1005.0666812280035,13.158176289366912