5.372988230227968,8.57401184761352,52.29822907295913,83.35401602626541,124.3918334316281,98.79228692215486,465.01825015178633,528.8635393719685,-4.693442914621198,-5.412531904224012
5.372988230227968,6.812215752135643,52.29822907295913,83.35401602626541,124.3918334316281,105.28665446563804,465.01825015178633,528.8635393719685,-4.693442914621198,-5.412531904224012
5.372988230227968,9.279345828929312,52.29822907295913,83.35401602626541,124.3918334316281,98.79228692215486,364.1958675783863,528.8635393719685,9.213001106439991,-5.412531904224012
5.372988230227968,8.57401184761352,52.29822907295913,83.35401602626541,124.3918334316281,98.79228692215486,465.01825015178633,528.8635393719685,-4.693442914621198,-5.412531904224012