0.08512836827788862,7.992055194013501,624.5178870132407,1209.7245538868196,0.5544555865922116,1332.3398095836533,5376.955921473669,7789.20585717378,-1116.7080080187695,-47.986088594575335
0.08512836827788862,8.997302411707995,624.5178870132407,1209.7245538868196,0.5538415348075709,1332.3398095836533,5881.780321242295,5986.265935939825,-1116.7080080187695,-47.986088594575335
-0.10942119608287533,7.992055194013501,624.5178870132407,1209.7245538868196,0.5544555865922116,1574.0016099513423,5376.955921473669,7789.20585717378,-1116.7080080187695,-47.986088594575335
0.29527028465887606,7.99830462852017,466.3102231067619,1209.7245538868196,0.5550696383768524,1332.3398095836533,5881.780321242295,5986.265935939825,-1105.8072208422616,-48.05970978968484