-0.012146413902493353,8.494678802860747,693.2056742564578,1115.2449160138037,0.5394365922253148,1332.3398095836533,5376.955921473669,7676.522112096658,-1116.7080080187695,-47.986088594575335
0.012172281642602142,8.494678802860747,693.2056742564578,1180.0099258610235,0.5394365922253148,1332.3398095836533,5376.955921473669,7789.20585717378,-1116.7080080187695,-47.986088594575335
-0.012146413902493353,8.494678802860747,693.2056742564578,1180.0099258610235,0.5541485606998913,1332.3398095836533,5376.955921473669,7563.838367019535,-1116.7080080187695,-47.986088594575335
-0.012146413902493353,8.494678802860747,693.2056742564578,1180.0099258610235,0.5544555865922116,1332.3398095836533,6012.450142433694,7789.20585717378,-1116.7080080187695,-47.986088594575335