1.3345961947793316e-06,8.494678802860747,693.2056742564578,1180.0099258610235,0.5394365922253148,1332.3398095836533,5376.955921473669,7789.20585717378,-1116.7080080187695,-47.986088594575335
-0.012146413902493353,8.494678802860747,333.99743457911444,1180.0099258610235,0.5394365922253148,1332.3398095836533,5803.762139738074,7789.20585717378,-1116.7080080187695,-47.986088594575335
1.2933870054394545e-05,8.494678802860747,693.2056742564578,1180.0099258610235,0.5394365922253148,1332.3398095836533,5376.955921473669,13308.032247892088,-1116.7080080187695,-47.986088594575335
-0.006066740016219479,8.494678802860747,693.2056742564578,1180.0099258610235,0.5394365922253148,1332.3398095836533,5376.955921473669,13308.032247892088,-1116.7080080187695,-47.986088594575335