1.147451497358121e-06,8.494678802860747,603.403614337122,550.9958713329594,0.5394365922253148,1332.3398095836533,6648.20401154247,10548.619052532933,-1116.7080080187695,-47.986088594575335
1.2933870054394545e-05,8.494678802860747,513.6015544177861,1180.0099258610235,0.5394365922253148,1332.3398095836533,5376.955921473669,13308.032247892088,-1116.7080080187695,-47.986088594575335
2.0648027867739508e-05,8.494678802860747,693.2056742564578,1180.0099258610235,0.5394365922253148,1332.3398095836533,5376.955921473669,10548.619052532933,-1116.7080080187695,-47.986088594575335
1.0034051589490742e-05,8.494678802860747,693.2056742564578,1180.0099258610235,0.5394365922253148,1332.3398095836533,5376.955921473669,10548.619052532933,-1116.7080080187695,-47.986088594575335