1.2234002998466985e-06,8.494678802860747,648.3046442967899,1180.0099258610235,0.5394365922253148,1332.3398095836533,5376.955921473669,25148.02283473037,-247.5965362734787,-47.986088594575335
1.1476420187619034e-06,8.494678802860747,648.3046442967899,1180.0099258610235,0.5394365922253148,1332.3398095836533,5376.955921473669,10548.619052532933,-247.5965362734787,-47.986088594575335
1.1476420187619034e-06,8.494678802860747,477.7724217216434,1180.0099258610235,0.5394365922253148,1332.3398095836533,5376.955921473669,7658.830263251649,-247.5965362734787,-47.986088594575335
1.1476420187619034e-06,8.494678802860747,0.6806544593778163,0.6396044633229818,0.5394365922253148,0.2757545064743129,0.7460263453149769,10548.619052532933,-247.5965362734787,0.1675054394350849