1.1476420187619034e-06,8.494678802860747,563.0385330092166,154.69580454989347,0.5394365922253148,1332.3398095836533,5376.955921473669,10548.619052532933,421.26652511802274,-80.84360371289162
1.2234002998466985e-06,6.67197445031829,605.6715886530033,1180.0099258610235,0.5394365922253148,1332.3398095836533,5376.955921473669,10548.619052532933,421.26652511802274,-91.7961087523304
1.2234002998466985e-06,8.494678802860747,563.0385330092166,1180.0099258610235,0.5394365922253148,1191.0907657217847,5376.955921473669,10548.619052532933,-247.5965362734787,-91.7961087523304
1.1476420187619034e-06,6.67197445031829,563.0385330092166,1180.0099258610235,0.5394365922253148,1332.3398095836533,5376.955921473669,10548.619052532933,421.26652511802274,-91.7961087523304