1.2767871130713256e-06,12.12723538772314,281.7493681545789,156.7188070412106,0.5394365922253148,1191.0907657217847,5376.955921473669,5274.365805244073,314.81502673263617,-185.0479844058351
1.2767871130713256e-06,12.12723538772314,281.7493681545789,154.69580454989347,0.5394365922253148,1116.7044206269697,5376.955921473669,5274.365805244073,314.81502673263617,-185.0479844058351
1.3082154122514388e-06,12.12723538772314,281.7493681545789,154.69580454989347,0.5394365922253148,1042.318075532155,5376.955921473669,5274.365805244073,314.81502673263617,-163.77083824845616
1.2767871130713256e-06,12.12723538772314,281.7493681545789,154.69580454989347,0.5394365922253148,1191.0907657217847,5376.955921473669,5274.365805244073,314.81502673263617,-163.77083824845616