5.338690099408302,7.693113799874581,52.29822907295913,83.35401602626541,124.3918334316281,105.28665446563804,465.01825015178633,528.8635393719685,-4.693442914621198,-5.412531904224012
5.372988230227968,7.693113799874581,52.29822907295913,83.35401602626541,124.3918334316281,105.28665446563804,465.01825015178633,528.8635393719685,-4.693442914621198,-5.412531904224012
5.338690099408302,7.693113799874581,52.29822907295913,83.35401602626541,124.3918334316281,105.28665446563804,465.01825015178633,528.8635393719685,-4.693442914621198,-5.412531904224012
5.304391968588635,9.178137907770608,52.29822907295913,83.35401602626541,124.3918334316281,93.4454083776707,389.4014632217363,528.8635393719685,-4.693442914621198,-5.412531904224012