5.217015941614103,7.693113799874581,52.29822907295913,84.44694744715487,124.3918334316281,105.28665446563804,443.61993981801055,2997.539978018544,-4.693442914621198,-5.412531904224012
5.217015941614103,7.693113799874581,52.29822907295913,84.44694744715487,124.3918334316281,105.28665446563804,443.61993981801055,2997.539978018544,-4.693442914621198,-5.412531904224012
5.217015941614103,7.693113799874581,52.29822907295913,84.44694744715487,124.3918334316281,105.28665446563804,443.61993981801055,2997.539978018544,-4.693442914621198,-5.412531904224012
5.217015941614103,7.693113799874581,52.29822907295913,84.44694744715487,124.3918334316281,105.28665446563804,443.61993981801055,2997.539978018544,-4.693442914621198,-5.412531904224012