5.559416042300784,7.724717113527843,52.29822907295913,53.1229676354012,117.00275887702986,105.28665446563804,693.3361366884984,3151.029366222227,-4.693442914621198,-5.412531904224012
5.529007368888192,7.758385622537531,52.29822907295913,53.1229676354012,117.00275887702986,105.28665446563804,443.61993981801055,3151.029366222227,-4.693442914621198,-5.412531904224012
5.544211705594488,6.404156842989092,52.29822907295913,68.78495754127803,117.00275887702986,105.28665446563804,443.7585625510626,2173.060865248873,-4.693442914621198,-5.412531904224012
5.529007368888192,7.741551368032687,52.29822907295913,53.1229676354012,117.00275887702986,105.28665446563804,693.3361366884984,2173.060865248873,-4.693442914621198,-5.300014394034233